distance,identification
0.0,1
1.2145237,0
1.0698745,0
1.1591735,0
1.182449,0
1.1834705,1
1.3180937,0
0.9876606,0
1.20758,0
0.5288738,1
1.4677111,0
1.3870106,0
1.187784,0
0.5583011,1
1.3365653,0
1.1296569,0
1.2522602,0
1.5280087,0
0.6021932,1
1.2914301,0
1.0140829,0
1.4585422,0
0.63520837,1
1.2176784,0
1.0355285,0
1.3779728,0
0.46535787,1
1.0361097,0
1.1203389,0
1.4586372,0
0.4572185,1
1.2943649,0
0.66341937,1
1.2542152,0
1.0914721,0
1.1793327,0
0.98555166,0
1.2153993,0
0.63181716,1
0.95685977,0
1.013927,0
1.500805,0
0.44734305,1
1.1162148,0
1.0524939,0
1.2414412,0
0.8669748,1
0.97256666,0
1.0698745,0
1.4624596,0
0.0,1
1.2273442,0
0.6644925,1
1.3454636,0
1.2580057,0
1.1321564,0
1.2145237,0
0.0,1
1.4624596,0
1.2127875,0
0.98663276,0
1.3633624,0
0.37605622,1
1.1785009,0
1.122108,0
1.4380023,0
0.4983037,1
1.2710831,0
1.205001,0
1.4487568,0
0.42973918,1
1.2380184,0
1.0640608,0
1.3255335,0
0.53193593,1
1.2647802,0
1.0291702,0
1.357525,0
0.4073282,1
1.2113336,0
1.1569127,0
1.4359674,0
0.47748414,1
1.1931951,0
1.0994711,0
1.3754894,0
0.5913175,1
1.2459604,0
1.419422,0
1.0103441,0
1.4580617,0
1.0469621,1
1.1108619,0
1.4719894,0
0.4550832,1
1.311416,0
1.5173059,0
1.1482509,0
1.5437881,0
1.041109,1
0.6040466,1
1.2766626,0
1.2128966,0
1.0387099,0
1.2435689,0
0.6255521,1
1.3230317,0
1.2290798,0
1.4014215,0
1.0267006,0
1.336482,0
0.7978663,1
1.2537439,0
0.5831989,1
1.3529309,0
1.1051368,0
0.69666183,1
1.3653169,0
1.2958305,0
0.9926604,0
0.56488097,1
1.2841941,0
1.2306114,0
1.0843077,0
1.3741492,0
0.9712817,0
1.4301283,0
0.8828319,1
1.4053038,0
1.0276951,0
1.3209336,0
0.9373302,1
0.38158733,1
1.1598133,0
1.0869089,0
1.1752276,0
1.1591735,0
1.2127875,0
1.2273442,0
0.0,1
0.47931755,1
1.2436407,0
1.2090126,0
1.1763932,0
1.0979517,0
1.0875616,1
1.3612301,0
1.249146,0
0.57366604,1
1.2077003,0
1.1573751,0
1.1358001,0
1.1393322,0
0.75250214,1
1.2560567,0
1.1468015,0
1.1830457,0
0.49356735,1
1.3433222,0
1.0088224,0
0.3779866,1
1.2271613,0
1.1680331,0
1.1323084,0
1.2222574,0
0.6854874,1
1.3544126,0
1.2380962,0
