distance,identification
0.0,1
1.2034192,0
1.4195787,0
1.4571234,0
1.1983706,0
0.6692,1
1.3935533,0
1.4396768,0
1.2724483,0
0.6461727,1
1.4501384,0
1.2233953,0
1.1940234,0
0.59701186,1
1.3128847,0
1.3264543,0
1.4368751,0
1.4833808,0
1.4379882,1
1.3816707,0
1.311782,0
1.3674642,0
0.7881831,1
1.2427143,0
1.4097137,0
1.4597913,0
0.8385619,1
1.4154592,0
1.2368903,0
1.3393613,0
1.0733882,1
1.4723312,0
0.67151743,1
1.1795436,0
1.4568002,0
1.4925187,0
1.4533165,0
1.4294997,0
0.8992785,1
1.1361228,0
1.340333,0
1.4025778,0
0.74730533,1
1.3711259,0
1.4360108,0
1.365133,0
0.5606092,1
1.1790111,0
1.4195787,0
1.421865,0
0.0,1
1.3048298,0
0.7304406,1
1.2874151,0
1.4546363,0
1.4680562,0
1.2034192,0
0.0,1
1.421865,0
1.3515401,0
1.4588495,0
1.4032804,0
0.6185162,1
1.2067112,0
1.4047189,0
1.4418883,0
0.8163574,1
1.3768938,0
1.396534,0
1.5100774,0
0.66134363,1
1.387577,0
1.3297176,0
1.4589981,0
0.8319156,1
1.3109503,0
1.5548382,0
1.4693557,0
0.771789,1
1.1559836,0
1.4381989,0
1.4934926,0
0.7408392,1
1.1887865,0
1.353914,0
1.4822035,0
1.1825808,1
1.3848537,0
1.5686646,0
1.3756983,0
1.3358303,0
0.551193,1
1.3410529,0
1.3225335,0
0.9314738,1
1.4152066,0
1.4067591,0
1.4350557,0
1.3152678,0
0.85358536,1
0.6714218,1
1.2300913,0
1.5053,0
1.4713616,0
1.2114779,0
0.8636362,1
1.3831266,0
1.3628489,0
1.5989716,0
1.4005058,0
1.3714718,0
0.69934165,1
1.2585301,0
0.6863903,1
1.3375177,0
1.2629817,0
0.7134079,1
1.1937467,0
1.4221442,0
1.483144,0
0.6852986,1
1.1891166,0
1.4160733,0
1.4775709,0
1.3616755,0
1.3421524,0
1.3750542,0
0.9134116,1
1.5723441,0
1.3031977,0
1.3774691,0
0.831299,1
0.58603954,1
1.2155229,0
1.4115174,0
1.4353276,0
1.4571234,0
1.3515401,0
1.3048298,0
0.0,1
0.67973834,1
1.2852372,0
1.5261904,0
1.4356467,0
1.1763461,0
0.56229156,1
1.3305249,0
1.3015453,0
0.66421854,1
1.2560077,0
1.4467654,0
1.4071407,0
1.2376744,0
0.81514287,1
1.3383582,0
1.2655439,0
1.1547512,0
0.63080686,1
1.3937951,0
1.1916171,0
0.49635303,1
1.2462168,0
1.349176,0
1.4852328,0
1.1751084,0
0.6842285,1
1.3568214,0
1.3227397,0
